<svg width="104" height="219" viewBox="0 0 104 219" fill="none" xmlns="http://www.w3.org/2000/svg">
    <path opacity="0.5" fill-rule="evenodd" clip-rule="evenodd" d="M-127.785 0C-144.321 0 -159.096 10.5648 -162.606 30.8346L-193.852 211.341C-195 217.959 -189.313 221.176 -182.578 217.377L-150.203 199.076C-136.947 191.829 -128.128 186.708 -120.634 186.708C-59.6814 186.708 -12.9446 186.708 48.0082 186.708C64.6359 186.708 79.2349 176.865 82.5975 156.456C85.7007 137.656 90.6937 111.914 93.7877 93.1324L103.403 34.7629C106.756 14.493 95.6218 0 79.0775 0C5.37831 0 -54.0863 0 -127.785 0Z" fill="#E5E7EB"/>
</svg>
