<svg width="124" height="124" viewBox="0 0 124 124" fill="none" xmlns="http://www.w3.org/2000/svg">
    <g clip-path="url(#clip0_575_21318)">
        <path d="M11.0118 64.3512C10.5678 54.1752 22.7334 44.8929 34.6349 41.1356C47.8038 36.9764 51.5471 31.9685 60.7872 24.8585C84.6745 6.48783 115.489 22.8661 113.483 45.4746C112.603 55.3583 108.969 67.2935 102.056 75.6709C92.2453 87.5752 83.9944 83.2587 66.8602 81.2015C54.6861 79.743 45.831 85.2118 34.1206 84.3462C19.1869 83.2446 11.453 74.2124 11.0118 64.3512Z" fill="#66BFFF"/>
        <path opacity="0.9" d="M11.0118 64.3512C10.5678 54.1752 22.7334 44.8929 34.6349 41.1356C47.8038 36.9764 51.5471 31.9685 60.7872 24.8585C84.6745 6.48783 115.489 22.8661 113.483 45.4746C112.603 55.3583 108.969 67.2935 102.056 75.6709C92.2453 87.5752 83.9944 83.2587 66.8602 81.2015C54.6861 79.743 45.831 85.2118 34.1206 84.3462C19.1869 83.2446 11.453 74.2124 11.0118 64.3512Z" fill="#3EAEFF"/>
        <path d="M58.1288 49.6847C58.1288 42.2057 68.4377 26.4391 73.289 19.3644C74.6028 17.5452 77.1295 17.5452 78.4434 19.3644C83.2947 26.4391 93.7046 42.2057 93.7046 49.6847C93.7046 59.5893 85.7203 67.4726 75.9167 67.4726C66.0121 67.4726 58.1288 59.5893 58.1288 49.6847ZM67.8313 49.6847C67.8313 48.8762 67.0228 48.0676 66.2142 48.0676C65.3046 48.0676 64.5972 48.8762 64.5972 49.6847C64.5972 55.9509 69.6505 61.0043 75.9167 61.0043C76.7253 61.0043 77.5338 60.2968 77.5338 59.3872C77.5338 58.5786 76.7253 57.7701 75.9167 57.7701C71.3687 57.7701 67.8313 54.2327 67.8313 49.6847Z" fill="white"/>
        <path d="M27 59.3872C27 53.7779 34.7317 41.953 38.3701 36.647C39.3555 35.2826 41.2505 35.2826 42.2359 36.647C45.8744 41.953 53.6819 53.7779 53.6819 59.3872C53.6819 66.8157 47.6936 72.7281 40.3409 72.7281C32.9125 72.7281 27 66.8157 27 59.3872ZM34.2769 59.3872C34.2769 58.7808 33.6705 58.1744 33.0641 58.1744C32.3819 58.1744 31.8512 58.7808 31.8512 59.3872C31.8512 64.0868 35.6413 67.8769 40.3409 67.8769C40.9473 67.8769 41.5537 67.3463 41.5537 66.6641C41.5537 66.0577 40.9473 65.4512 40.3409 65.4512C36.9299 65.4512 34.2769 62.7982 34.2769 59.3872Z" fill="white"/>
        <path d="M51.1552 81.2178C51.1552 77.9457 55.6653 71.0479 57.7877 67.9527C58.3625 67.1568 59.468 67.1568 60.0428 67.9527C62.1652 71.0479 66.7196 77.9457 66.7196 81.2178C66.7196 85.5511 63.2264 89 58.9374 89C54.6041 89 51.1552 85.5511 51.1552 81.2178ZM55.4 81.2178C55.4 80.8641 55.0463 80.5103 54.6925 80.5103C54.2946 80.5103 53.9851 80.8641 53.9851 81.2178C53.9851 83.9593 56.1959 86.1701 58.9374 86.1701C59.2911 86.1701 59.6448 85.8606 59.6448 85.4626C59.6448 85.1089 59.2911 84.7552 58.9374 84.7552C56.9476 84.7552 55.4 83.2076 55.4 81.2178Z" fill="white"/>
        <path opacity="0.7" d="M43.6111 49.5661H43.492C43.3021 49.5531 43.1167 49.5025 42.9464 49.4174C42.7761 49.3322 42.6244 49.2142 42.5 49.0701C42.3777 48.9265 42.2851 48.7601 42.2276 48.5804C42.1701 48.4008 42.1489 48.2115 42.1652 48.0235C42.1884 47.7457 42.2919 47.4806 42.4631 47.2605C42.6344 47.0405 42.866 46.8751 43.1297 46.7846C43.3934 46.694 43.6778 46.6821 43.9481 46.7504C44.2184 46.8188 44.463 46.9643 44.652 47.1693C44.841 47.3743 44.9662 47.6299 45.0123 47.9049C45.0585 48.1799 45.0236 48.4623 44.9119 48.7178C44.8002 48.9733 44.6165 49.1907 44.3834 49.3435C44.1502 49.4964 43.8775 49.578 43.5987 49.5785L43.6111 49.5661ZM43.6111 46.8778C43.3704 46.8733 43.1337 46.939 42.9297 47.0667C42.7257 47.1945 42.5633 47.3789 42.4623 47.5974C42.3614 47.8159 42.3262 48.0591 42.361 48.2973C42.3959 48.5354 42.4994 48.7583 42.6588 48.9387C42.7646 49.0641 42.8943 49.1673 43.0403 49.2422C43.1863 49.3171 43.3458 49.3623 43.5094 49.3751C43.8399 49.4024 44.1677 49.2973 44.4207 49.0829C44.6738 48.8685 44.8312 48.5624 44.8585 48.2319C44.8858 47.9014 44.7807 47.5735 44.5663 47.3205C44.3519 47.0675 44.0458 46.91 43.7152 46.8827L43.6111 46.8778Z" fill="white"/>
        <path opacity="0.7" d="M30.5109 54.5261H30.2229C29.7634 54.513 29.3148 54.4625 28.9028 54.3773C28.4909 54.2922 28.1238 54.1742 27.8229 54.0301C27.5269 53.8865 27.3028 53.7201 27.1638 53.5404C27.0247 53.3607 26.9734 53.1714 27.0129 52.9835C27.0688 52.7056 27.3193 52.4405 27.7336 52.2205C28.148 52.0005 28.7084 51.8351 29.3463 51.7445C29.9843 51.6539 30.6723 51.6421 31.3263 51.7104C31.9803 51.7787 32.572 51.9243 33.0292 52.1293C33.4864 52.3343 33.7894 52.5899 33.901 52.8649C34.0127 53.1398 33.9283 53.4223 33.658 53.6778C33.3878 53.9332 32.9435 54.1507 32.3793 54.3035C31.8151 54.4563 31.1555 54.538 30.4809 54.5385L30.5109 54.5261ZM30.5109 51.8377C29.9287 51.8333 29.3558 51.8989 28.8623 52.0267C28.3688 52.1545 27.9759 52.3389 27.7317 52.5574C27.4874 52.7759 27.4022 53.0191 27.4866 53.2572C27.571 53.4954 27.8213 53.7183 28.2069 53.8986C28.463 54.0241 28.7768 54.1272 29.13 54.2021C29.4833 54.2771 29.8691 54.3223 30.2649 54.3351C31.0645 54.3624 31.8576 54.2573 32.4698 54.0429C33.0819 53.8285 33.4629 53.5223 33.5289 53.1918C33.595 52.8613 33.3406 52.5335 32.8219 52.2805C32.3032 52.0275 31.5625 51.87 30.7629 51.8427L30.5109 51.8377Z" fill="white"/>
        <path opacity="0.7" d="M73.3711 76.8461H73.2521C73.0621 76.8331 72.8767 76.7825 72.7064 76.6974C72.5362 76.6123 72.3844 76.4942 72.2601 76.3501C72.1377 76.2066 72.0451 76.0401 71.9876 75.8605C71.9301 75.6808 71.9089 75.4915 71.9253 75.3036C71.9484 75.0257 72.0519 74.7606 72.2232 74.5406C72.3944 74.3206 72.626 74.1552 72.8897 74.0646C73.1534 73.974 73.4378 73.9622 73.7081 74.0305C73.9784 74.0988 74.223 74.2444 74.412 74.4494C74.601 74.6544 74.7262 74.91 74.7723 75.1849C74.8185 75.4599 74.7836 75.7424 74.6719 75.9978C74.5602 76.2533 74.3766 76.4707 74.1434 76.6236C73.9102 76.7764 73.6375 76.8581 73.3587 76.8585L73.3711 76.8461ZM73.3711 74.1578C73.1304 74.1533 72.8937 74.219 72.6897 74.3468C72.4857 74.4746 72.3233 74.6589 72.2223 74.8775C72.1214 75.096 72.0862 75.3391 72.1211 75.5773C72.1559 75.8155 72.2594 76.0383 72.4188 76.2187C72.5246 76.3441 72.6543 76.4473 72.8003 76.5222C72.9464 76.5971 73.1058 76.6423 73.2694 76.6552C73.5999 76.6825 73.9277 76.5774 74.1808 76.3629C74.4338 76.1485 74.5912 75.8424 74.6185 75.5119C74.6458 75.1814 74.5407 74.8536 74.3263 74.6006C74.1119 74.3475 73.8058 74.1901 73.4753 74.1628L73.3711 74.1578Z" fill="white"/>
        <path opacity="0.3" d="M99.761 58.822C99.4214 58.8383 99.0847 58.7535 98.7933 58.5784C98.5019 58.4033 98.269 58.1457 98.124 57.8382C97.9791 57.5307 97.9286 57.1871 97.9789 56.8509C98.0292 56.5147 98.1782 56.2009 98.4068 55.9494C98.6355 55.6978 98.9336 55.5197 99.2635 55.4376C99.5934 55.3555 99.9403 55.3731 100.26 55.4881C100.58 55.6031 100.859 55.8105 101.061 56.0839C101.263 56.3573 101.379 56.6844 101.395 57.024C101.416 57.479 101.256 57.9237 100.95 58.2607C100.643 58.5977 100.216 58.7995 99.761 58.822Z" fill="#F5C371"/>
        <path opacity="0.3" d="M72.481 76.182C72.1414 76.1983 71.8046 76.1135 71.5132 75.9384C71.2219 75.7633 70.989 75.5057 70.844 75.1982C70.699 74.8907 70.6485 74.5471 70.6989 74.2109C70.7492 73.8746 70.8981 73.5609 71.1268 73.3093C71.3555 73.0578 71.6536 72.8797 71.9835 72.7976C72.3134 72.7155 72.6602 72.7331 72.9801 72.8481C73.3 72.9631 73.5786 73.1705 73.7807 73.4439C73.9828 73.7172 74.0992 74.0444 74.1153 74.384C74.1362 74.839 73.9759 75.2836 73.6696 75.6207C73.3633 75.9577 72.9358 76.1595 72.481 76.182Z" fill="white"/>
        <path opacity="0.7" d="M75.2977 79.1095H75.2605C75.1329 79.0969 75.0151 79.0354 74.9319 78.9378C74.8487 78.8403 74.8064 78.7142 74.8141 78.5862C74.8199 78.4896 74.8539 78.3968 74.9118 78.3192C74.9697 78.2417 75.049 78.1828 75.14 78.1497C75.231 78.1167 75.3297 78.1111 75.4238 78.1334C75.518 78.1558 75.6036 78.2052 75.67 78.2756C75.7364 78.346 75.7808 78.4343 75.7977 78.5297C75.8145 78.625 75.8031 78.7231 75.7648 78.812C75.7266 78.901 75.6631 78.9767 75.5823 79.03C75.5015 79.0833 75.4069 79.1118 75.3101 79.112L75.2977 79.1095ZM74.9976 78.5986C74.9928 78.6387 74.9961 78.6793 75.0073 78.7181C75.0185 78.7569 75.0374 78.793 75.0629 78.8243C75.0884 78.8555 75.12 78.8814 75.1557 78.9002C75.1914 78.919 75.2305 78.9304 75.2707 78.9337C75.311 78.9371 75.3514 78.9323 75.3897 78.9196C75.4281 78.9069 75.4634 78.8867 75.4937 78.86C75.524 78.8334 75.5487 78.8009 75.5661 78.7645C75.5836 78.7281 75.5935 78.6886 75.5953 78.6482C75.6002 78.6082 75.5969 78.5675 75.5857 78.5288C75.5745 78.49 75.5555 78.4539 75.53 78.4226C75.5045 78.3913 75.473 78.3655 75.4373 78.3467C75.4016 78.3279 75.3625 78.3165 75.3222 78.3131C75.282 78.3098 75.2415 78.3146 75.2032 78.3273C75.1649 78.3399 75.1295 78.3602 75.0992 78.3869C75.0689 78.4135 75.0443 78.446 75.0269 78.4824C75.0094 78.5188 74.9995 78.5583 74.9976 78.5986Z" fill="white"/>
        <path opacity="0.3" d="M104.086 93.7293C103.818 92.5141 100.475 93.2333 99.7828 93.3449C98.438 93.5885 97.1217 93.9691 95.8545 94.4807C94.4582 95.0263 92.8363 95.8323 91.3905 95.0015C90.5547 94.5179 93.4563 93.5681 93.7192 93.4714C94.9523 93.039 96.1428 92.4936 97.2755 91.842C97.7343 91.5692 98.6222 90.917 98.2402 90.2523C97.9228 89.7042 96.7845 89.7563 96.0926 89.8406C93.9954 90.1014 91.9387 90.6212 89.9694 91.3882C88.0532 92.149 86.1775 93.0082 84.3498 93.9624C83.6409 94.3601 82.8706 94.6367 82.0706 94.7808C81.1977 94.9048 80.1288 94.7213 79.7841 94.2352C79.4394 93.7491 79.8833 93.1886 79.985 92.7026C80.1282 92.1214 80.0678 91.5086 79.8138 90.9666C79.6443 90.6039 79.3614 90.3062 79.0078 90.1184C78.063 89.6224 76.6345 89.8059 75.6846 90.1978C75.0691 90.4584 74.5067 90.83 74.0255 91.2939C73.0561 92.1962 72.3761 93.3656 72.0713 94.6543C71.9945 95.0579 71.8389 95.4425 71.6134 95.7859C71.3878 96.1293 71.0968 96.4249 70.7569 96.6557C69.4276 97.551 66.9922 97.4989 65.1298 97.05C61.8785 96.2638 59.3985 94.4609 58.8008 92.4248C58.5106 91.4551 58.3693 90.4532 57.0648 90.0638C56.2216 89.8158 54.4558 89.987 54.8328 91.0558C54.9702 91.3486 55.1489 91.62 55.3635 91.8618C55.7082 92.3157 56.0753 93.1713 55.051 93.4466C54.7193 93.5161 54.3785 93.532 54.0417 93.4937C50.7482 93.273 47.7177 92.1743 45.7535 90.6268C45.1131 90.1236 44.5701 89.5076 44.1514 88.809C43.9183 88.4246 43.834 88.0129 43.5786 87.631C43.335 87.2659 42.9903 86.9798 42.5866 86.8076C41.3218 86.262 38.3507 86.5447 38.1424 87.7376C38.0308 88.3824 38.4326 89.0818 38.6384 89.6943C38.6758 89.7714 38.6845 89.8593 38.6632 89.9423C38.6037 90.0986 38.3681 90.1432 38.1672 90.1556C35.5111 90.3317 32.9344 89.3 30.7049 88.2237C28.3439 87.0829 25.7449 85.5974 22.4638 85.58C21.7853 85.5499 21.1062 85.6286 20.4526 85.8131C20.2862 85.8552 20.1318 85.9349 20.0012 86.0462C19.921 86.1297 19.8678 86.2353 19.8483 86.3494C19.8289 86.4635 19.8441 86.5808 19.8921 86.6861C19.9982 86.9041 20.1567 87.0924 20.3534 87.2342C21.3454 88.0426 22.7342 88.37 24.0014 88.7866C27.7615 90.0104 31.3969 91.5881 34.8589 93.4986C35.2086 93.6946 35.8286 94.1484 35.3375 94.4906C34.8465 94.8329 33.8495 94.6097 33.2618 94.513C32.1954 94.3394 31.1711 94.0641 30.132 93.8012C28.7581 93.4565 27.156 93.139 25.668 93.4267C24.8818 93.578 24.18 93.9004 23.8105 94.3369C23.6835 94.4648 23.5998 94.6293 23.5713 94.8073C23.5429 94.9853 23.571 95.1677 23.6518 95.3289C24.1626 96.239 26.4914 96.6334 27.7636 97.0649C29.393 97.6206 30.9858 98.2783 32.5326 99.034C33.8545 99.6862 35.0821 100.403 36.4213 101.045C41.2052 103.342 47.8863 103.634 53.8606 103.858C60.3458 104.106 66.8608 103.895 73.3286 103.535C78.0406 103.272 82.6658 102.754 87.2836 102.146C88.6104 101.97 89.9298 101.757 91.2516 101.576C92.5934 101.422 93.9205 101.159 95.2196 100.79C95.6863 100.671 96.122 100.453 96.4968 100.15C96.8514 99.8226 96.963 99.3911 96.3282 99.2646C94.9989 98.9993 93.6299 99.3018 92.3304 99.5399C90.8722 99.8044 89.4271 100.112 87.9954 100.462C87.3429 100.638 86.6804 100.773 86.0114 100.867C85.3392 100.962 84.6545 100.918 84.0001 100.738C83.7868 100.671 83.5537 100.552 83.5413 100.363C83.5289 100.175 83.7074 100.056 83.891 99.9838C86.5669 98.9249 89.409 98.2478 92.2709 97.6278C94.2127 97.2062 96.1893 96.9483 98.146 96.6185C99.9291 96.3209 101.809 96.249 103.354 95.1305C103.66 94.9327 103.898 94.6463 104.036 94.3096C104.109 94.1252 104.126 93.9234 104.086 93.7293Z" fill="#ACDCFF"/>
        <path opacity="0.3" d="M27.3444 83.6999C26.6177 81.6316 24.0286 77.9736 23.483 80.1362C23.1904 81.339 27.3444 83.6999 27.3444 83.6999Z" fill="white"/>
        <path opacity="0.3" d="M92.3652 87.7573C93.7491 86.4949 95.4752 85.741 95.6984 86.8521C95.9067 87.9011 92.3652 87.7573 92.3652 87.7573Z" fill="white"/>
        <path opacity="0.3" d="M35.5905 77.7157C34.6431 77.2197 33.9041 76.4237 34.4596 76.0913C35.0151 75.759 35.5905 77.7157 35.5905 77.7157Z" fill="white"/>
    </g>
    <defs>
        <clipPath id="clip0_575_21318">
            <rect width="124" height="124" fill="white"/>
        </clipPath>
    </defs>
</svg>
